no\ntnu\henriabu\mappe\del1\hospital\healthpersonal\doctor\Surgeon.class
no\ntnu\henriabu\mappe\del1\hospital\Patient.class
no\ntnu\henriabu\mappe\del1\hospital\Department.class
no\ntnu\henriabu\mappe\del1\hospital\exception\RemoveException.class
no\ntnu\henriabu\mappe\del1\hospital\Hospital.class
no\ntnu\henriabu\mappe\del1\hospital\Person.class
no\ntnu\henriabu\mappe\del1\hospital\healthpersonal\Nurse.class
no\ntnu\henriabu\mappe\del1\hospital\healthpersonal\doctor\GeneralPractitioner.class
no\ntnu\henriabu\mappe\del1\hospital\Employee.class
no\ntnu\henriabu\mappe\del1\hospital\healthpersonal\doctor\Doctor.class
no\ntnu\henriabu\mappe\del1\hospital\Diagnosable.class
no\ntnu\henriabu\mappe\del1\hospital\HospitalTestData.class
no\ntnu\henriabu\mappe\del1\hospital\HospitalClient.class
